mul/BoothMul.vcd
$version Generated by VerilatedVcd $end
$timescale 1ps $end
 $scope module TOP $end
  $var wire 1 & clk $end
  $var wire 1 ' rst $end
  $var wire 1 ( start $end
  $var wire 8 ) x [7:0] $end
  $var wire 8 * y [7:0] $end
  $var wire 16 + z [15:0] $end
  $var wire 1 , valid $end
  $scope module BoothMul $end
   $var wire 32 / WIDTH [31:0] $end
   $var wire 32 0 log2WIDTH [31:0] $end
   $var wire 1 & clk $end
   $var wire 1 ' rst $end
   $var wire 1 ( start $end
   $var wire 8 ) x [7:0] $end
   $var wire 8 * y [7:0] $end
   $var wire 16 + z [15:0] $end
   $var wire 1 , valid $end
   $var wire 3 1 IDLE [2:0] $end
   $var wire 3 2 CACULATE [2:0] $end
   $var wire 3 3 FINISH [2:0] $end
   $var wire 1 - rst_n $end
   $var wire 3 # state [2:0] $end
   $var wire 3 . next_state [2:0] $end
   $var wire 2 $ q_reg [1:0] $end
   $var wire 4 % cnt [3:0] $end
  $upscope $end
 $upscope $end
$enddefinitions $end


#0
b000 #
b00 $
b0000 %
1&
0'
0(
b00000000 )
b00000000 *
b0000000000000000 +
0,
1-
b001 .
b00000000000000000000000000001000 /
b00000000000000000000000000000011 0
b001 1
b010 2
b100 3
#1
0&
#2
b001 #
1&
#3
0&
1'
0-
#4
1&
#5
0&
#6
1&
0'
1-
#7
0&
#8
1&
#9
0&
#10
1&
#11
0&
#12
1&
#13
0&
#14
1&
#15
0&
#16
1&
#17
0&
#18
1&
#19
0&
#20
1&
b00001111 )
b00101000 *
#21
0&
#22
1&
b0000000000101000 +
#23
0&
#24
1&
#25
0&
#26
1&
1(
b00111010 )
b01010110 *
b010 .
#27
0&
#28
b010 #
1&
0(
b0000000001010110 +
#29
0&
#30
b10 $
b0001 %
1&
b0000000000101011 +
#31
0&
#32
b11 $
b0010 %
1&
b1110001100010101 +
#33
0&
#34
b01 $
b0011 %
1&
b1111000110001010 +
#35
0&
#36
b10 $
b0100 %
1&
b0001010111000101 +
#37
0&
#38
b01 $
b0101 %
1&
b1110110111100010 +
#39
0&
#40
b10 $
b0110 %
1&
b0001001111110001 +
#41
0&
#42
b01 $
b0111 %
1&
b1110110011111000 +
b100 .
#43
0&
#44
b100 #
b00 $
b1000 %
1&
b0001001101111100 +
1,
b001 .
#45
0&
#46
b001 #
b0000 %
1&
0,
#47
0&
#48
1&
b0000000001010110 +
#49
0&
#50
1&
b01010111 )
b00011111 *
#51
0&
#52
b10 $
1&
1(
b01000001 )
b00010001 *
b0000000000011111 +
b010 .
#53
0&
#54
b010 #
1&
0(
b0000000000010001 +
#55
0&
#56
b01 $
b0001 %
1&
b1101111110001000 +
#57
0&
#58
b00 $
b0010 %
1&
1(
b01101110 )
b01001100 *
b0001000001000100 +
#59
0&
#60
b0011 %
1&
0(
b0000100000100010 +
#61
0&
#62
b10 $
b0100 %
1&
b0000010000010001 +
#63
0&
#64
b01 $
b0101 %
1&
b1110000110001000 +
#65
0&
#66
b00 $
b0110 %
1&
b0001000101000100 +
#67
0&
#68
b0111 %
1&
b0000100010100010 +
b100 .
#69
0&
#70
b100 #
b10 $
b1000 %
1&
b0000010001010001 +
1,
b001 .
#71
0&
#72
b001 #
b00 $
b0000 %
1&
0,
#73
0&
#74
1&
b0000000001001100 +
#75
0&
#76
1&
#77
0&
#78
1&
#79
0&
#80
1&
#81
0&
#82
1&
#83
0&
#84
1&
1(
b00111101 )
b00100100 *
b010 .
#85
0&
#86
b010 #
1&
b01000110 )
b01010100 *
b0000000000100100 +
#87
0&
#88
b0001 %
1&
0(
b00110111 )
b00100010 *
b0000000000010010 +
#89
0&
#90
b10 $
b0010 %
1&
1(
b00110101 )
b01011011 *
b0000000000001001 +
#91
0&
#92
b01 $
b0011 %
1&
0(
b1110000110000100 +
#93
0&
#94
b00 $
b0100 %
1&
1(
b01011110 )
b01110110 *
b0000111101000010 +
#95
0&
#96
b10 $
b0101 %
1&
0(
b0000011110100001 +
#97
0&
#98
b01 $
b0110 %
1&
1(
b00000101 )
b00111101 *
b1110010101010000 +
#99
0&
#100
b00 $
b0111 %
1&
0(
b0001000100101000 +
b100 .
#101
0&
#102
b100 #
b1000 %
1&
b0000100010010100 +
1,
b001 .
#103
0&
#104
b001 #
b0000 %
1&
0,
#105
0&
#106
b10 $
1&
b0000000000111101 +
#107
0&
#108
1&
#109
0&
#110
1&
#111
0&
#112
1&
#113
0&
#114
1&
#115
0&
#116
1&
#117
0&
#118
1&
#119
0&
#120
1&
#121
0&
#122
1&
#123
0&
#124
1&
#125
0&
#126
1&
#127
0&
#128
1&
#129
0&
#130
1&
#131
0&
#132
1&
1(
b00110100 )
b01110001 *
b010 .
#133
0&
#134
b010 #
1&
0(
b0000000001110001 +
#135
0&
#136
b01 $
b0001 %
1&
b1110011000111000 +
#137
0&
#138
b00 $
b0010 %
1&
b0000110100011100 +
#139
0&
#140
b0011 %
1&
b00010010 )
b00111011 *
b0000011010001110 +
#141
0&
#142
b10 $
b0100 %
1&
b0000001101000111 +
#143
0&
#144
b11 $
b0101 %
1&
b1110011110100011 +
#145
0&
#146
b0110 %
1&
b1111001111010001 +
#147
0&
#148
b01 $
b0111 %
1&
b1111100111101000 +
b100 .
#149
0&
#150
b100 #
b10 $
b1000 %
1&
b0001011011110100 +
1,
b001 .
#151
0&
#152
b001 #
b00 $
b0000 %
1&
1(
b00101000 )
b00001001 *
0,
b010 .
#153
0&
#154
b010 #
b10 $
1&
0(
b0000000000001001 +
#155
0&
#156
b01 $
b0001 %
1&
b1110110000000100 +
#157
0&
#158
b00 $
b0010 %
1&
b0000101000000010 +
#159
0&
#160
b10 $
b0011 %
1&
b0000010100000001 +
#161
0&
#162
b01 $
b0100 %
1&
b1110111010000000 +
#163
0&
#164
b00 $
b0101 %
1&
b0000101101000000 +
#165
0&
#166
b0110 %
1&
b0000010110100000 +
#167
0&
#168
b0111 %
1&
b0000001011010000 +
b100 .
#169
0&
#170
b100 #
b10 $
b1000 %
1&
b01001101 )
b00011101 *
b0000000101101000 +
1,
b001 .
#171
0&
#172
b001 #
b00 $
b0000 %
1&
1(
b00100111 )
b00000010 *
0,
b010 .
#173
0&
#174
b010 #
1&
0(
b0000000000000010 +
#175
0&
#176
b10 $
b0001 %
1&
b0000000000000001 +
#177
0&
#178
b01 $
b0010 %
1&
b1110110010000000 +
#179
0&
#180
b00 $
b0011 %
1&
b0000100111000000 +
#181
0&
#182
b0100 %
1&
b0000010011100000 +
#183
0&
#184
b0101 %
1&
b0000001001110000 +
#185
0&
#186
b0110 %
1&
1(
b01010011 )
b01001000 *
b0000000100111000 +
#187
0&
#188
b0111 %
1&
0(
b0000000010011100 +
b100 .
#189
0&
#190
b100 #
b1000 %
1&
b0000000001001110 +
1,
b001 .
#191
0&
#192
b001 #
b0000 %
1&
1(
b01010101 )
b00001111 *
0,
b010 .
#193
0&
#194
b010 #
b10 $
1&
0(
b0000000000001111 +
#195
0&
#196
b11 $
b0001 %
1&
b1101010110000111 +
#197
0&
#198
b0010 %
1&
1(
b00001000 )
b00110111 *
b1110101011000011 +
#199
0&
#200
b0011 %
1&
0(
b1111010101100001 +
#201
0&
#202
b01 $
b0100 %
1&
b1111101010110000 +
#203
0&
#204
b00 $
b0101 %
1&
b0010011111011000 +
#205
0&
#206
b0110 %
1&
b0001001111101100 +
#207
0&
#208
b0111 %
1&
1(
b01111011 )
b00001101 *
b0000100111110110 +
b100 .
#209
0&
#210
b100 #
b10 $
b1000 %
1&
0(
b0000010011111011 +
1,
b001 .
#211
0&
#212
b001 #
b00 $
b0000 %
1&
1(
b00101001 )
b01000111 *
0,
b010 .
#213
0&
#214
b010 #
b10 $
1&
0(
b0000000001000111 +
#215
0&
#216
b11 $
b0001 %
1&
b1110101110100011 +
#217
0&
#218
b0010 %
1&
b1111010111010001 +
#219
0&
#220
b01 $
b0011 %
1&
b1111101011101000 +
#221
0&
#222
b00 $
b0100 %
1&
b0001000111110100 +
#223
0&
#224
b0101 %
1&
b0000100011111010 +
#225
0&
#226
b10 $
b0110 %
1&
b0000010001111101 +
#227
0&
#228
b01 $
b0111 %
1&
b1110110110111110 +
b100 .
#229
0&
#230
b100 #
b10 $
b1000 %
1&
b0000101101011111 +
1,
b001 .
#231
0&
#232
b001 #
b00 $
b0000 %
1&
0,
#233
0&
#234
b10 $
1&
b0000000001000111 +
#235
0&
#236
1&
#237
0&
#238
1&
#239
0&
#240
1&
#241
0&
#242
1&
1(
b00010111 )
b00011011 *
b010 .
#243
0&
#244
b010 #
1&
0(
b0000000000011011 +
#245
0&
#246
b11 $
b0001 %
1&
b1111010010001101 +
#247
0&
#248
b01 $
b0010 %
1&
b1111101001000110 +
#249
0&
#250
b10 $
b0011 %
1&
b01010011 )
b00000000 *
b0000100010100011 +
#251
0&
#252
b11 $
b0100 %
1&
b1111100011010001 +
#253
0&
#254
b01 $
b0101 %
1&
b1111110001101000 +
#255
0&
#256
b00 $
b0110 %
1&
b0000100110110100 +
#257
0&
#258
b0111 %
1&
1(
b00001001 )
b00011100 *
b0000010011011010 +
b100 .
#259
0&
#260
b100 #
b10 $
b1000 %
1&
b01110001 )
b00111101 *
b0000001001101101 +
1,
b001 .
#261
0&
#262
b001 #
b00 $
b0000 %
1&
0(
0,
#263
0&
#264
b10 $
1&
b0000000000111101 +
#265
0&
#266
1&
b01011111 )
b01111001 *
#267
0&
#268
1&
b0000000001111001 +
#269
0&
#270
1&
b00110111 )
b00010001 *
#271
0&
#272
1&
b0000000000010001 +
#273
0&
#274
1&
#275
0&
#276
1&
#277
0&
#278
1&
#279
0&
#280
1&
#281
0&
#282
1&
1(
b00011000 )
b01101110 *
b010 .
#283
0&
#284
b010 #
b00 $
1&
0(
b0000000001101110 +
#285
0&
#286
b10 $
b0001 %
1&
b0000000000110111 +
#287
0&
#288
b11 $
b0010 %
1&
b1111010000011011 +
#289
0&
#290
b0011 %
1&
b1111101000001101 +
#291
0&
#292
b01 $
b0100 %
1&
b1111110100000110 +
#293
0&
#294
b10 $
b0101 %
1&
b0000101010000011 +
#295
0&
#296
b11 $
b0110 %
1&
b1111100101000001 +
#297
0&
#298
b01 $
b0111 %
1&
b1111110010100000 +
b100 .
