mul/BoothMul.vcd
$version Generated by VerilatedVcd $end
$timescale 1ps $end
 $scope module TOP $end
  $var wire 1 & clk $end
  $var wire 1 ' rst $end
  $var wire 1 ( start $end
  $var wire 8 ) x [7:0] $end
  $var wire 8 * y [7:0] $end
  $var wire 16 + z [15:0] $end
  $var wire 1 , valid $end
  $scope module BoothMul $end
   $var wire 32 . WIDTH [31:0] $end
   $var wire 32 / log2WIDTH [31:0] $end
   $var wire 1 & clk $end
   $var wire 1 ' rst $end
   $var wire 1 ( start $end
   $var wire 8 ) x [7:0] $end
   $var wire 8 * y [7:0] $end
   $var wire 16 + z [15:0] $end
   $var wire 1 , valid $end
   $var wire 3 0 IDLE [2:0] $end
   $var wire 3 1 CACULATE [2:0] $end
   $var wire 3 2 FINISH [2:0] $end
   $var wire 3 # state [2:0] $end
   $var wire 3 - next_state [2:0] $end
   $var wire 2 $ q_reg [1:0] $end
   $var wire 4 % cnt [3:0] $end
  $upscope $end
 $upscope $end
$enddefinitions $end


#0
b000 #
b00 $
b0000 %
1&
0'
0(
b00000000 )
b00000000 *
b0000000000000000 +
0,
b001 -
b00000000000000000000000000001000 .
b00000000000000000000000000000011 /
b001 0
b010 1
b100 2
#1
0&
#2
b001 #
1&
#3
0&
1'
#4
1&
#5
0&
#6
1&
0'
#7
0&
#8
1&
#9
0&
#10
1&
#11
0&
#12
1&
#13
0&
#14
1&
#15
0&
#16
1&
#17
0&
#18
1&
#19
0&
#20
1&
b00100110 )
b00101011 *
#21
0&
#22
b10 $
1&
b0000000000101011 +
#23
0&
#24
1&
1(
b00000100 )
b00111000 *
b010 -
#25
0&
#26
b010 #
b00 $
1&
0(
b0000000000111000 +
#27
0&
#28
b0001 %
1&
b0000000000011100 +
#29
0&
#30
b0010 %
1&
b0000000000001110 +
#31
0&
#32
b10 $
b0011 %
1&
b0000000000000111 +
#33
0&
#34
b11 $
b0100 %
1&
b1111111000000011 +
#35
0&
#36
b0101 %
1&
b1111111100000001 +
#37
0&
#38
b01 $
b0110 %
1&
b00011100 )
b00110110 *
b1111111110000000 +
#39
0&
#40
b00 $
b0111 %
1&
b0000000111000000 +
b100 -
#41
0&
#42
b100 #
b1000 %
1&
b0000000011100000 +
1,
b001 -
#43
0&
#44
b001 #
b0000 %
1&
0,
#45
0&
#46
1&
b0000000000110110 +
#47
0&
#48
1&
#49
0&
#50
1&
#51
0&
#52
1&
#53
0&
#54
1&
#55
0&
#56
1&
#57
0&
#58
1&
#59
0&
#60
1&
b00001000 )
b01100110 *
#61
0&
#62
1&
b0000000001100110 +
#63
0&
#64
1&
#65
0&
#66
1&
#67
0&
#68
1&
#69
0&
#70
1&
#71
0&
#72
1&
b00110011 )
b01010101 *
#73
0&
#74
b10 $
1&
b0000000001010101 +
#75
0&
#76
1&
#77
0&
#78
1&
#79
0&
#80
1&
#81
0&
#82
1&
#83
0&
#84
1&
#85
0&
#86
1&
1(
b01110111 )
b00111011 *
b010 -
#87
0&
#88
b010 #
1&
0(
b0000000000111011 +
#89
0&
#90
b11 $
b0001 %
1&
b1100010010011101 +
#91
0&
#92
b01 $
b0010 %
1&
b1110001001001110 +
#93
0&
#94
b10 $
b0011 %
1&
b01001111 )
b01011111 *
b0010110010100111 +
#95
0&
#96
b11 $
b0100 %
1&
b1101101011010011 +
#97
0&
#98
b0101 %
1&
b1110110101101001 +
#99
0&
#100
b01 $
b0110 %
1&
b1111011010110100 +
#101
0&
#102
b00 $
b0111 %
1&
b0011011011011010 +
b100 -
#103
0&
#104
b100 #
b10 $
b1000 %
1&
b01011100 )
b00100100 *
b0001101101101101 +
1,
b001 -
#105
0&
#106
b001 #
b00 $
b0000 %
1&
0,
#107
0&
#108
1&
b0000000000100100 +
#109
0&
#110
1&
#111
0&
#112
1&
1(
b01010010 )
b01010100 *
b010 -
#113
0&
#114
b010 #
1&
0(
b0000000001010100 +
#115
0&
#116
b0001 %
1&
b0000000000101010 +
#117
0&
#118
b10 $
b0010 %
1&
1(
b01001000 )
b01010111 *
b0000000000010101 +
#119
0&
#120
b01 $
b0011 %
1&
0(
b1101011100001010 +
#121
0&
#122
b10 $
b0100 %
1&
b0001010010000101 +
#123
0&
#124
b01 $
b0101 %
1&
b1110000101000010 +
#125
0&
#126
b10 $
b0110 %
1&
b0001100110100001 +
#127
0&
#128
b01 $
b0111 %
1&
b1110001111010000 +
b100 -
#129
0&
#130
b100 #
b00 $
b1000 %
1&
b0001101011101000 +
1,
b001 -
#131
0&
#132
b001 #
b0000 %
1&
0,
#133
0&
#134
b10 $
1&
b0000000001010111 +
#135
0&
#136
1&
#137
0&
#138
1&
1(
b01111011 )
b00111110 *
b010 -
#139
0&
#140
b010 #
b00 $
1&
0(
b0000000000111110 +
#141
0&
#142
b10 $
b0001 %
1&
1(
b01101011 )
b00010111 *
b0000000000011111 +
#143
0&
#144
b11 $
b0010 %
1&
0(
b1100001010001111 +
#145
0&
#146
b0011 %
1&
b01000001 )
b01010111 *
b1110000101000111 +
#147
0&
#148
b0100 %
1&
b01011011 )
b00101100 *
b1111000010100011 +
#149
0&
#150
b0101 %
1&
b00100100 )
b00110010 *
b1111100001010001 +
#151
0&
#152
b01 $
b0110 %
1&
b1111110000101000 +
#153
0&
#154
b00 $
b0111 %
1&
b0011101110010100 +
b100 -
#155
0&
#156
b100 #
b1000 %
1&
b0001110111001010 +
1,
b001 -
#157
0&
#158
b001 #
b0000 %
1&
1(
b01011010 )
b01111001 *
0,
b010 -
#159
0&
#160
b010 #
b10 $
1&
0(
b0000000001111001 +
#161
0&
#162
b01 $
b0001 %
1&
b1101001100111100 +
#163
0&
#164
b00 $
b0010 %
1&
b0001011010011110 +
#165
0&
#166
b10 $
b0011 %
1&
b0000101101001111 +
#167
0&
#168
b11 $
b0100 %
1&
1(
b00111011 )
b01001100 *
b1101100010100111 +
#169
0&
#170
b0101 %
1&
0(
b1110110001010011 +
#171
0&
#172
b0110 %
1&
b1111011000101001 +
#173
0&
#174
b01 $
b0111 %
1&
b1111101100010100 +
b100 -
#175
0&
#176
b100 #
b10 $
b1000 %
1&
b0010101010001010 +
1,
b001 -
#177
0&
#178
b001 #
b00 $
b0000 %
1&
0,
#179
0&
#180
1&
b00010010 )
b01100110 *
b0000000001001100 +
#181
0&
#182
1&
b0000000001100110 +
#183
0&
#184
1&
#185
0&
#186
1&
#187
0&
#188
1&
#189
0&
#190
1&
#191
0&
#192
1&
#193
0&
#194
1&
1(
b01100101 )
b01100101 *
b010 -
#195
0&
#196
b010 #
b10 $
1&
0(
b0000000001100101 +
#197
0&
#198
b01 $
b0001 %
1&
b1100110110110010 +
#199
0&
#200
b10 $
b0010 %
1&
1(
b01001101 )
b00110011 *
b0001100101011001 +
#201
0&
#202
b01 $
b0011 %
1&
0(
b1101101000101100 +
#203
0&
#204
b00 $
b0100 %
1&
b01011000 )
b01010100 *
b0001111110010110 +
#205
0&
#206
b10 $
b0101 %
1&
b0000111111001011 +
#207
0&
#208
b11 $
b0110 %
1&
b1101010101100101 +
#209
0&
#210
b01 $
b0111 %
1&
b1110101010110010 +
b100 -
#211
0&
#212
b100 #
b10 $
b1000 %
1&
b0010011111011001 +
1,
b001 -
#213
0&
#214
b001 #
b00 $
b0000 %
1&
0,
#215
0&
#216
1&
1(
b01000110 )
b01011010 *
b0000000001010100 +
b010 -
#217
0&
#218
b010 #
1&
0(
b0000000001011010 +
#219
0&
#220
b10 $
b0001 %
1&
b0000000000101101 +
#221
0&
#222
b01 $
b0010 %
1&
b1101110100010110 +
#223
0&
#224
b10 $
b0011 %
1&
b0001000110001011 +
#225
0&
#226
b11 $
b0100 %
1&
b1110010111000101 +
#227
0&
#228
b01 $
b0101 %
1&
b1111001011100010 +
#229
0&
#230
b10 $
b0110 %
1&
1(
b00010100 )
b01000011 *
b0001110001110001 +
#231
0&
#232
b01 $
b0111 %
1&
0(
b1110101100111000 +
b100 -
#233
0&
#234
b100 #
b00 $
b1000 %
1&
b0001100010011100 +
1,
b001 -
#235
0&
#236
b001 #
b0000 %
1&
0,
#237
0&
#238
b10 $
1&
b0000000001000011 +
#239
0&
#240
1&
#241
0&
#242
1&
b00001010 )
b01011100 *
#243
0&
#244
b00 $
1&
b0000000001011100 +
#245
0&
#246
1&
b00110010 )
b01111110 *
#247
0&
#248
1&
1(
b01111110 )
b00110101 *
b0000000001111110 +
b010 -
#249
0&
#250
b010 #
b10 $
1&
0(
b0000000000110101 +
#251
0&
#252
b01 $
b0001 %
1&
b1100000100011010 +
#253
0&
#254
b10 $
b0010 %
1&
b0001111110001101 +
#255
0&
#256
b01 $
b0011 %
1&
b1101000011000110 +
#257
0&
#258
b10 $
b0100 %
1&
b0010011101100011 +
#259
0&
#260
b11 $
b0101 %
1&
b1101010010110001 +
#261
0&
#262
b01 $
b0110 %
1&
b1110101001011000 +
#263
0&
#264
b00 $
b0111 %
1&
b0011010000101100 +
b100 -
#265
0&
#266
b100 #
b10 $
b1000 %
1&
b0001101000010110 +
1,
b001 -
#267
0&
#268
b001 #
b00 $
b0000 %
1&
0,
#269
0&
#270
b10 $
1&
b0000000000110101 +
#271
0&
#272
1&
1(
b00011001 )
b00000100 *
b010 -
#273
0&
#274
b010 #
b00 $
1&
0(
b0000000000000100 +
#275
0&
#276
b0001 %
1&
1(
b01010010 )
b00100101 *
b0000000000000010 +
#277
0&
#278
b10 $
b0010 %
1&
0(
b0000000000000001 +
#279
0&
#280
b01 $
b0011 %
1&
b1111001110000000 +
#281
0&
#282
b00 $
b0100 %
1&
b00011000 )
b00010011 *
b0000011001000000 +
#283
0&
#284
b0101 %
1&
b0000001100100000 +
#285
0&
#286
b0110 %
1&
b0000000110010000 +
#287
0&
#288
b0111 %
1&
b0000000011001000 +
b100 -
#289
0&
#290
b100 #
b1000 %
1&
b0000000001100100 +
1,
b001 -
#291
0&
#292
b001 #
b0000 %
1&
1(
b01110100 )
b01110001 *
0,
b010 -
#293
0&
#294
b010 #
b10 $
1&
0(
b0000000001110001 +
#295
0&
#296
b01 $
b0001 %
1&
b1100011000111000 +
#297
0&
#298
b00 $
b0010 %
1&
b0001110100011100 +
